<?xml version="1.0" encoding="UTF-8"?>
<DataFileEntity>
   <description></description>
   <name>TestExcel</name>
   <tag></tag>
   <containsHeaders>false</containsHeaders>
   <csvSeperator></csvSeperator>
   <dataFileGUID>3f5b5037-53dd-41ae-ba60-466c8e87c0b1</dataFileGUID>
   <dataSourceUrl>data/urlTest.xlsx</dataSourceUrl>
   <driver>ExcelFile</driver>
   <isInternalPath>true</isInternalPath>
   <query></query>
   <secureUserAccount>false</secureUserAccount>
   <sheetName>Sheet1</sheetName>
   <usingGlobalDBSetting>false</usingGlobalDBSetting>
</DataFileEntity>
